{
    "ucapJsonSchemaVersion": "v1",
    "name": "H0HM_ADC",
    "description": "H0HM Interlock Signals on SIS ADC",
    "deviceClass": "H0HM_ADC_UCAP",
    "accelerator": "PSB",
    "ppm": true,
    "transformations": [
      {
        "type": "EventToMany",
        "name": "Processed_ADC_channels",
        "description": "Interlock Signals",
        "event": {
          "type": "GroupTriggeredCycleStampGrouped",
          "triggerGroup": {
            "subscriptions": [
            {
              "parameter": "BR.BOADC.H0HM/AcquisitionSIS33",
              "selector" : "PSB.USER.ALL",
              "alias": "adc_acquisition"
            }
            ],
            "timeoutMs": 2000
          },
          "bufferedSubscriptions": [
            {
              "parameter": "BI.BCT10/Acquisition",
              "selector": "PSB.USER.ALL",
              "alias": "BCT"
            },
            {
              "parameter": "PSB.TGM/FULL-TELEGRAM.STRC#USER",
              "selector": "PSB.USER.ALL",
              "alias": "USER"
            }
          ]
        },
        "converter": {
          "language": "Python",
          "moduleName": "ucap_h0hm_vmeadc.converters.adc_converter",
          "configuration": {
            "system": "sys33_adc",
            "channels": ["ch1","ch2","ch3","ch4"],
            "channel_names": ["R1","R2","R3","R4"]
          }
        },
        "publishedProperties": ["R1", "R2","R3","R4","BCT","User"]
      }
    ]
}

