{
    "ucapJsonSchemaVersion": "v1",
    "name": "BR2.BOADC.H0HM.UCAP",
    "description": "H0HM Interlock Signals on SIS ADC",
    "deviceClass": "H0HM_ADC_UCAP",
    "accelerator": "PSB",
    "ppm": true,
    "transformations": [
      {
        "type": "EventToMany",
        "name": "Processed_ADC_channels",
        "description": "Interlock Signals",
        "event": {
          "type": "GroupTriggeredCycleStampGrouped",
          "triggerGroup": {
            "subscriptions": [
            {
              "parameter": "BR.BOADC.H0HM/AcquisitionSIS33",
              "selector" : "PSB.USER.ALL",
              "alias": "adc_acquisition"
            }
            ],
            "timeoutMs": 1200
          },
          "bufferedSubscriptions": [
            {
              "parameter": "BI.BCT10/Acquisition",
              "selector": "PSB.USER.ALL",
              "alias": "BCT10"
            },
            {
              "parameter": "BI2.BCT20/Acquisition",
              "selector": "PSB.USER.ALL",
              "alias": "BCT20"
            },
            {
              "parameter": "PSB.TGM/FULL-TELEGRAM.STRC#USER",
              "selector": "PSB.USER.ALL",
              "alias": "USER"
            },
            {
              "parameter": "BR2.BCT-ST/SamplesFromTrigger",
              "selector": "PSB.USER.ALL",
              "alias": "BCT_RING"
            }
          ]
        },
        "converter": {
          "language": "Python",
          "moduleName": "ucap_h0hm_vmeadc.converters.adc_converter_single_ch",
          "configuration": {
            "system": "sys33_adc",
            "channel": "dataChannel2",
            "channel_name": "interlockSignal"
          }
        },
        "publishedProperties": ["processedData","interlockSignal","BCT","User"]
      }
    ]
}

